…
### 1-2) How many aisles are there, and which aisles are the most items ordered from?

``` r
# Number of aisles
# Aisles with the most items ordered from

instacart %>% 
  janitor::clean_names() %>%
  count(aisle, name = "number_of_aisles") %>% 
  arrange(desc(number_of_aisles))
```

    # A tibble: 134 x 2
       aisle                         number_of_aisles
       <chr>                                    <int>
     1 fresh vegetables                        150609
     2 fresh fruits                            150473
     3 packaged vegetables fruits               78493
     4 yogurt                                   55240
     5 packaged cheese                          41699
     6 water seltzer sparkling water            36617
     7 milk                                     32644
     8 chips pretzels                           31269
     9 soy lactosefree                          26240
    10 bread                                    23635
    # ... with 124 more rows
…
acc_tidy_df
```

    # A tibble: 50,400 x 6
        week day_id day    activity    activity_counts activity_day
       <dbl>  <dbl> <chr>  <chr>                 <dbl> <chr>       
     1     1      1 Friday activity_1             88.4 weekday     
     2     1      1 Friday activity_2             82.2 weekday     
     3     1      1 Friday activity_3             64.4 weekday     
     4     1      1 Friday activity_4             70.0 weekday     
     5     1      1 Friday activity_5             75.0 weekday     
     6     1      1 Friday activity_6             66.3 weekday     
     7     1      1 Friday activity_7             53.8 weekday     
     8     1      1 Friday activity_8             47.8 weekday     
     9     1      1 Friday activity_9             55.5 weekday     
    10     1      1 Friday activity_10            43.0 weekday     
    # ... with 50,390 more rows
…
clean_ny_noaa
```

    # A tibble: 2,595,176 x 9
       id           year month   day  prcp  snow  snwd  tmax  tmin
       <chr>       <dbl> <dbl> <dbl> <dbl> <int> <int> <dbl> <dbl>
     1 US1NYAB0001  2007    11     1    NA    NA    NA    NA    NA
     2 US1NYAB0001  2007    11     2    NA    NA    NA    NA    NA
     3 US1NYAB0001  2007    11     3    NA    NA    NA    NA    NA
     4 US1NYAB0001  2007    11     4    NA    NA    NA    NA    NA
     5 US1NYAB0001  2007    11     5    NA    NA    NA    NA    NA
     6 US1NYAB0001  2007    11     6    NA    NA    NA    NA    NA
     7 US1NYAB0001  2007    11     7    NA    NA    NA    NA    NA
     8 US1NYAB0001  2007    11     8    NA    NA    NA    NA    NA
     9 US1NYAB0001  2007    11     9    NA    NA    NA    NA    NA
    10 US1NYAB0001  2007    11    10    NA    NA    NA    NA    NA
    # ... with 2,595,166 more rows
…
